﻿{
  "$schema": "http://json.schemastore.org/launchsettings.json",
  "iisSettings": {
    "windowsAuthentication": false,
    "anonymousAuthentication": true,
    "iisExpress": {
      "applicationUrl": "http://localhost:5005",
      "sslPort": 0
    }
  },
  "profiles": {
    "IIS Express": {
      "commandName": "IISExpress",
      "launchBrowser": true,
      "launchUrl": "",
      "environmentVariables": {
        "ASPNETCORE_ENVIRONMENT": "local"
      }
    },
    "Npw.Services.Transactions": {
      "commandName": "Project",
      "launchBrowser": true,
      "launchUrl": "docs",
      "applicationUrl": "http://localhost:5005",
      "environmentVariables": {
        "ASPNETCORE_ENVIRONMENT": "local"
      }
    }
  }
}