{
  "iisSettings": {
    "windowsAuthentication": false,
    "anonymousAuthentication": true,
    "iisExpress": {
      "applicationUrl": "http://localhost:5008",
      "sslPort": 0
    }
  },
  "profiles": {
    "IIS Express": {
      "commandName": "IISExpress",
      "launchBrowser": true,
      "launchUrl": "docs",
      "environmentVariables": {
        "ASPNETCORE_ENVIRONMENT": "local"
      }
    },
    "Npw.Services.Operations": {
      "commandName": "Project",
      "launchBrowser": true,
      "launchUrl": "docs",
      "environmentVariables": {
        "ASPNETCORE_ENVIRONMENT": "local"
      },
      "applicationUrl": "http://localhost:5008"
    },
    "Docker": {
      "commandName": "Docker",
      "launchBrowser": true,
      "launchUrl": "{Scheme}://{ServiceHost}:{ServicePort}/docs",
      "publishAllPorts": true
    }
  }
}