﻿{
  "$schema": "http://json.schemastore.org/launchsettings.json",
  "iisSettings": {
    "windowsAuthentication": false, 
    "anonymousAuthentication": true, 
    "iisExpress": {
      "applicationUrl": "http://localhost:7000",
      "sslPort": 0
    }
  },
  "profiles": {
    "IIS Express": {
      "commandName": "IISExpress",
      "launchBrowser": true,
      "launchUrl": "",
      "environmentVariables": {
        "ASPNETCORE_ENVIRONMENT": "local"
      }
    },
    "Npw.Api.Gateway.Mobile": {
      "commandName": "Project",
      "launchBrowser": true,
      "launchUrl": "",
      "applicationUrl": "http://localhost:7000",
      "environmentVariables": {
        "ASPNETCORE_ENVIRONMENT": "local"
      }
    }
  }
}